%YAML 1.1
%TAG !u! tag:unity3d.com,2011:
--- !u!1001 &3181031275578141254
PrefabInstance:
  m_ObjectHideFlags: 0
  serializedVersion: 2
  m_Modification:
    m_TransformParent: {fileID: 0}
    m_Modifications:
    - target: {fileID: 257424491101595508, guid: 46e6f6b1f10f6ab4a8e6ec903d93980d,
        type: 3}
      propertyPath: m_LocalPosition.x
      value: 0
      objectReference: {fileID: 0}
    - target: {fileID: 257424491101595508, guid: 46e6f6b1f10f6ab4a8e6ec903d93980d,
        type: 3}
      propertyPath: m_LocalPosition.y
      value: 0
      objectReference: {fileID: 0}
    - target: {fileID: 257424491101595508, guid: 46e6f6b1f10f6ab4a8e6ec903d93980d,
        type: 3}
      propertyPath: m_LocalPosition.z
      value: 0
      objectReference: {fileID: 0}
    - target: {fileID: 257424491101595508, guid: 46e6f6b1f10f6ab4a8e6ec903d93980d,
        type: 3}
      propertyPath: m_LocalRotation.x
      value: 0
      objectReference: {fileID: 0}
    - target: {fileID: 257424491101595508, guid: 46e6f6b1f10f6ab4a8e6ec903d93980d,
        type: 3}
      propertyPath: m_LocalRotation.y
      value: 0
      objectReference: {fileID: 0}
    - target: {fileID: 257424491101595508, guid: 46e6f6b1f10f6ab4a8e6ec903d93980d,
        type: 3}
      propertyPath: m_LocalRotation.z
      value: 0
      objectReference: {fileID: 0}
    - target: {fileID: 257424491101595508, guid: 46e6f6b1f10f6ab4a8e6ec903d93980d,
        type: 3}
      propertyPath: m_LocalRotation.w
      value: 1
      objectReference: {fileID: 0}
    - target: {fileID: 257424491101595508, guid: 46e6f6b1f10f6ab4a8e6ec903d93980d,
        type: 3}
      propertyPath: m_RootOrder
      value: 0
      objectReference: {fileID: 0}
    - target: {fileID: 257424491101595508, guid: 46e6f6b1f10f6ab4a8e6ec903d93980d,
        type: 3}
      propertyPath: m_LocalEulerAnglesHint.x
      value: 0
      objectReference: {fileID: 0}
    - target: {fileID: 257424491101595508, guid: 46e6f6b1f10f6ab4a8e6ec903d93980d,
        type: 3}
      propertyPath: m_LocalEulerAnglesHint.y
      value: 0
      objectReference: {fileID: 0}
    - target: {fileID: 257424491101595508, guid: 46e6f6b1f10f6ab4a8e6ec903d93980d,
        type: 3}
      propertyPath: m_LocalEulerAnglesHint.z
      value: 0
      objectReference: {fileID: 0}
    - target: {fileID: 507403233578653296, guid: 46e6f6b1f10f6ab4a8e6ec903d93980d,
        type: 3}
      propertyPath: runToPlayer_Speed
      value: 10
      objectReference: {fileID: 0}
    - target: {fileID: 507403233578653296, guid: 46e6f6b1f10f6ab4a8e6ec903d93980d,
        type: 3}
      propertyPath: LookToPlayer_Speed
      value: 10
      objectReference: {fileID: 0}
    - target: {fileID: 507403233578653296, guid: 46e6f6b1f10f6ab4a8e6ec903d93980d,
        type: 3}
      propertyPath: walkingSpeedTowardsPlayer
      value: 6
      objectReference: {fileID: 0}
    - target: {fileID: 807273537137818048, guid: 46e6f6b1f10f6ab4a8e6ec903d93980d,
        type: 3}
      propertyPath: movailableWall
      value: 1
      objectReference: {fileID: 0}
    - target: {fileID: 807273537137818048, guid: 46e6f6b1f10f6ab4a8e6ec903d93980d,
        type: 3}
      propertyPath: movingTime
      value: 2
      objectReference: {fileID: 0}
    - target: {fileID: 807273537137818048, guid: 46e6f6b1f10f6ab4a8e6ec903d93980d,
        type: 3}
      propertyPath: movingZLimit
      value: 8
      objectReference: {fileID: 0}
    - target: {fileID: 1941316014032687330, guid: 46e6f6b1f10f6ab4a8e6ec903d93980d,
        type: 3}
      propertyPath: m_ConnectedAnchor.x
      value: -0.043379355
      objectReference: {fileID: 0}
    - target: {fileID: 1941316014032687330, guid: 46e6f6b1f10f6ab4a8e6ec903d93980d,
        type: 3}
      propertyPath: m_ConnectedAnchor.y
      value: -0.019612275
      objectReference: {fileID: 0}
    - target: {fileID: 1941316014032687330, guid: 46e6f6b1f10f6ab4a8e6ec903d93980d,
        type: 3}
      propertyPath: m_ConnectedAnchor.z
      value: -0.00081918575
      objectReference: {fileID: 0}
    - target: {fileID: 1941316014061669854, guid: 46e6f6b1f10f6ab4a8e6ec903d93980d,
        type: 3}
      propertyPath: m_ConnectedAnchor.x
      value: -0.00000003179593
      objectReference: {fileID: 0}
    - target: {fileID: 1941316014061669854, guid: 46e6f6b1f10f6ab4a8e6ec903d93980d,
        type: 3}
      propertyPath: m_ConnectedAnchor.y
      value: 0.083418086
      objectReference: {fileID: 0}
    - target: {fileID: 1941316014061669854, guid: 46e6f6b1f10f6ab4a8e6ec903d93980d,
        type: 3}
      propertyPath: m_ConnectedAnchor.z
      value: -0.000000011175869
      objectReference: {fileID: 0}
    - target: {fileID: 1941316014120147923, guid: 46e6f6b1f10f6ab4a8e6ec903d93980d,
        type: 3}
      propertyPath: m_ConnectedAnchor.x
      value: 0.04337939
      objectReference: {fileID: 0}
    - target: {fileID: 1941316014120147923, guid: 46e6f6b1f10f6ab4a8e6ec903d93980d,
        type: 3}
      propertyPath: m_ConnectedAnchor.y
      value: -0.019612275
      objectReference: {fileID: 0}
    - target: {fileID: 1941316014120147923, guid: 46e6f6b1f10f6ab4a8e6ec903d93980d,
        type: 3}
      propertyPath: m_ConnectedAnchor.z
      value: -0.000547634
      objectReference: {fileID: 0}
    - target: {fileID: 1941316014211605947, guid: 46e6f6b1f10f6ab4a8e6ec903d93980d,
        type: 3}
      propertyPath: m_ConnectedAnchor.x
      value: 0.051218826
      objectReference: {fileID: 0}
    - target: {fileID: 1941316014211605947, guid: 46e6f6b1f10f6ab4a8e6ec903d93980d,
        type: 3}
      propertyPath: m_ConnectedAnchor.y
      value: 0.06729274
      objectReference: {fileID: 0}
    - target: {fileID: 1941316014211605947, guid: 46e6f6b1f10f6ab4a8e6ec903d93980d,
        type: 3}
      propertyPath: m_ConnectedAnchor.z
      value: 0.012843089
      objectReference: {fileID: 0}
    - target: {fileID: 1941316014800517774, guid: 46e6f6b1f10f6ab4a8e6ec903d93980d,
        type: 3}
      propertyPath: m_ConnectedAnchor.x
      value: 0.0000000102154445
      objectReference: {fileID: 0}
    - target: {fileID: 1941316014800517774, guid: 46e6f6b1f10f6ab4a8e6ec903d93980d,
        type: 3}
      propertyPath: m_ConnectedAnchor.y
      value: 0.041191194
      objectReference: {fileID: 0}
    - target: {fileID: 1941316014800517774, guid: 46e6f6b1f10f6ab4a8e6ec903d93980d,
        type: 3}
      propertyPath: m_ConnectedAnchor.z
      value: -0.00000010407528
      objectReference: {fileID: 0}
    - target: {fileID: 1941316015131452753, guid: 46e6f6b1f10f6ab4a8e6ec903d93980d,
        type: 3}
      propertyPath: m_ConnectedAnchor.x
      value: -0.00000007916241
      objectReference: {fileID: 0}
    - target: {fileID: 1941316015131452753, guid: 46e6f6b1f10f6ab4a8e6ec903d93980d,
        type: 3}
      propertyPath: m_ConnectedAnchor.y
      value: 0.08340823
      objectReference: {fileID: 0}
    - target: {fileID: 1941316015131452753, guid: 46e6f6b1f10f6ab4a8e6ec903d93980d,
        type: 3}
      propertyPath: m_ConnectedAnchor.z
      value: -0.000000014901163
      objectReference: {fileID: 0}
    - target: {fileID: 1941316015433451433, guid: 46e6f6b1f10f6ab4a8e6ec903d93980d,
        type: 3}
      propertyPath: m_ConnectedAnchor.x
      value: -0.000000049353954
      objectReference: {fileID: 0}
    - target: {fileID: 1941316015433451433, guid: 46e6f6b1f10f6ab4a8e6ec903d93980d,
        type: 3}
      propertyPath: m_ConnectedAnchor.y
      value: 0.094158925
      objectReference: {fileID: 0}
    - target: {fileID: 1941316015433451433, guid: 46e6f6b1f10f6ab4a8e6ec903d93980d,
        type: 3}
      propertyPath: m_ConnectedAnchor.z
      value: -0.0000000065192243
      objectReference: {fileID: 0}
    - target: {fileID: 2654284419465103757, guid: 46e6f6b1f10f6ab4a8e6ec903d93980d,
        type: 3}
      propertyPath: runToPlayer_Speed
      value: 10
      objectReference: {fileID: 0}
    - target: {fileID: 2654284419465103757, guid: 46e6f6b1f10f6ab4a8e6ec903d93980d,
        type: 3}
      propertyPath: LookToPlayer_Speed
      value: 10
      objectReference: {fileID: 0}
    - target: {fileID: 2654284419465103757, guid: 46e6f6b1f10f6ab4a8e6ec903d93980d,
        type: 3}
      propertyPath: walkingSpeedTowardsPlayer
      value: 6
      objectReference: {fileID: 0}
    - target: {fileID: 2956459915900846972, guid: 46e6f6b1f10f6ab4a8e6ec903d93980d,
        type: 3}
      propertyPath: movingZLimit
      value: 10
      objectReference: {fileID: 0}
    - target: {fileID: 2956459915900846972, guid: 46e6f6b1f10f6ab4a8e6ec903d93980d,
        type: 3}
      propertyPath: movingTime
      value: 2
      objectReference: {fileID: 0}
    - target: {fileID: 4627327960791106974, guid: 46e6f6b1f10f6ab4a8e6ec903d93980d,
        type: 3}
      propertyPath: m_LocalPosition.y
      value: 0
      objectReference: {fileID: 0}
    - target: {fileID: 4627327960791106974, guid: 46e6f6b1f10f6ab4a8e6ec903d93980d,
        type: 3}
      propertyPath: m_LocalPosition.z
      value: 0
      objectReference: {fileID: 0}
    - target: {fileID: 4801921555330212818, guid: 46e6f6b1f10f6ab4a8e6ec903d93980d,
        type: 3}
      propertyPath: m_ConnectedAnchor.x
      value: -0.052422203
      objectReference: {fileID: 0}
    - target: {fileID: 4801921555330212818, guid: 46e6f6b1f10f6ab4a8e6ec903d93980d,
        type: 3}
      propertyPath: m_ConnectedAnchor.y
      value: 0.068112604
      objectReference: {fileID: 0}
    - target: {fileID: 4801921555330212818, guid: 46e6f6b1f10f6ab4a8e6ec903d93980d,
        type: 3}
      propertyPath: m_ConnectedAnchor.z
      value: -0.010214621
      objectReference: {fileID: 0}
    - target: {fileID: 4801921555644705268, guid: 46e6f6b1f10f6ab4a8e6ec903d93980d,
        type: 3}
      propertyPath: m_ConnectedAnchor.x
      value: -0.00054260367
      objectReference: {fileID: 0}
    - target: {fileID: 4801921555644705268, guid: 46e6f6b1f10f6ab4a8e6ec903d93980d,
        type: 3}
      propertyPath: m_ConnectedAnchor.y
      value: 0.13266896
      objectReference: {fileID: 0}
    - target: {fileID: 4801921555644705268, guid: 46e6f6b1f10f6ab4a8e6ec903d93980d,
        type: 3}
      propertyPath: m_ConnectedAnchor.z
      value: -0.00031447317
      objectReference: {fileID: 0}
    - target: {fileID: 4801921556932458107, guid: 46e6f6b1f10f6ab4a8e6ec903d93980d,
        type: 3}
      propertyPath: m_ConnectedAnchor.x
      value: 0.000000014898475
      objectReference: {fileID: 0}
    - target: {fileID: 4801921556932458107, guid: 46e6f6b1f10f6ab4a8e6ec903d93980d,
        type: 3}
      propertyPath: m_ConnectedAnchor.y
      value: 0.09415962
      objectReference: {fileID: 0}
    - target: {fileID: 4801921556932458107, guid: 46e6f6b1f10f6ab4a8e6ec903d93980d,
        type: 3}
      propertyPath: m_ConnectedAnchor.z
      value: -0.000000050291373
      objectReference: {fileID: 0}
    - target: {fileID: 5875174855307194634, guid: 46e6f6b1f10f6ab4a8e6ec903d93980d,
        type: 3}
      propertyPath: m_Name
      value: 5.0
      objectReference: {fileID: 0}
    - target: {fileID: 6565857112884247120, guid: 46e6f6b1f10f6ab4a8e6ec903d93980d,
        type: 3}
      propertyPath: m_LocalScale.z
      value: 15
      objectReference: {fileID: 0}
    - target: {fileID: 8731894607852355820, guid: 46e6f6b1f10f6ab4a8e6ec903d93980d,
        type: 3}
      propertyPath: m_LocalScale.z
      value: 15
      objectReference: {fileID: 0}
    - target: {fileID: 8803166311074498419, guid: 46e6f6b1f10f6ab4a8e6ec903d93980d,
        type: 3}
      propertyPath: runToPlayer_Speed
      value: 10
      objectReference: {fileID: 0}
    - target: {fileID: 8803166311074498419, guid: 46e6f6b1f10f6ab4a8e6ec903d93980d,
        type: 3}
      propertyPath: LookToPlayer_Speed
      value: 10
      objectReference: {fileID: 0}
    - target: {fileID: 8803166311074498419, guid: 46e6f6b1f10f6ab4a8e6ec903d93980d,
        type: 3}
      propertyPath: walkingSpeedTowardsPlayer
      value: 6
      objectReference: {fileID: 0}
    - target: {fileID: 8973073756336480246, guid: 46e6f6b1f10f6ab4a8e6ec903d93980d,
        type: 3}
      propertyPath: runToPlayer_Speed
      value: 10
      objectReference: {fileID: 0}
    - target: {fileID: 8973073756336480246, guid: 46e6f6b1f10f6ab4a8e6ec903d93980d,
        type: 3}
      propertyPath: LookToPlayer_Speed
      value: 10
      objectReference: {fileID: 0}
    - target: {fileID: 8973073756336480246, guid: 46e6f6b1f10f6ab4a8e6ec903d93980d,
        type: 3}
      propertyPath: walkingSpeedTowardsPlayer
      value: 6
      objectReference: {fileID: 0}
    m_RemovedComponents: []
  m_SourcePrefab: {fileID: 100100000, guid: 46e6f6b1f10f6ab4a8e6ec903d93980d, type: 3}
