%YAML 1.1
%TAG !u! tag:unity3d.com,2011:
--- !u!21 &2100000
Material:
  serializedVersion: 6
  m_ObjectHideFlags: 0
  m_CorrespondingSourceObject: {fileID: 0}
  m_PrefabInstance: {fileID: 0}
  m_PrefabAsset: {fileID: 0}
  m_Name: Custom_Fog
  m_Shader: {fileID: 4800000, guid: 2d0a107b0b6e40f4391db91a09aef466, type: 3}
  m_ShaderKeywords: 
  m_LightmapFlags: 4
  m_EnableInstancingVariants: 0
  m_DoubleSidedGI: 0
  m_CustomRenderQueue: -1
  stringTagMap: {}
  disabledShaderPasses: []
  m_SavedProperties:
    serializedVersion: 3
    m_TexEnvs:
    - _MainTex:
        m_Texture: {fileID: 0}
        m_Scale: {x: 1, y: 1}
        m_Offset: {x: 0, y: 0}
    m_Floats:
    - _FogEnd: 0
    - _FogStart: 0.73
    m_Colors:
    - _Color: {r: 0.1981132, g: 0.19344072, b: 0.19344072, a: 1}
    - _FogColor: {r: 0.2082592, g: 0.40526596, b: 0.9811321, a: 1}
