%YAML 1.1
%TAG !u! tag:unity3d.com,2011:
--- !u!21 &2100000
Material:
  serializedVersion: 6
  m_ObjectHideFlags: 0
  m_CorrespondingSourceObject: {fileID: 0}
  m_PrefabInstance: {fileID: 0}
  m_PrefabAsset: {fileID: 0}
  m_Name: Skybox_Horizon With Sun Skybox 1
  m_Shader: {fileID: 4800000, guid: e62beaebaf9ec4da8ae22bfefe5cbb79, type: 3}
  m_ShaderKeywords: 
  m_LightmapFlags: 4
  m_EnableInstancingVariants: 0
  m_DoubleSidedGI: 0
  m_CustomRenderQueue: -1
  stringTagMap: {}
  disabledShaderPasses: []
  m_SavedProperties:
    serializedVersion: 3
    m_TexEnvs: []
    m_Floats:
    - _SkyExponent1: 1.73
    - _SkyExponent2: 0.51
    - _SkyIntensity: 1
    - _SunAlpha: 544.05
    - _SunAltitude: 67.71
    - _SunAzimuth: -39.2
    - _SunBeta: 1
    - _SunIntensity: 3.7
    m_Colors:
    - _SkyColor1: {r: 0.46751517, g: 0.67724574, b: 0.9622642, a: 0}
    - _SkyColor2: {r: 0.3529412, g: 0.972549, b: 0.92941177, a: 1}
    - _SkyColor3: {r: 0.14431292, g: 0.6509434, b: 0.6124651, a: 1}
    - _SunColor: {r: 1, g: 0.9901372, b: 0.8915094, a: 1}
    - _SunVector: {r: -0.23972534, g: 0.9252759, b: 0.29393232, a: 0}
