%YAML 1.1
%TAG !u! tag:unity3d.com,2011:
--- !u!1 &3246823120348858372
GameObject:
  m_ObjectHideFlags: 0
  m_CorrespondingSourceObject: {fileID: 0}
  m_PrefabInstance: {fileID: 0}
  m_PrefabAsset: {fileID: 0}
  serializedVersion: 6
  m_Component:
  - component: {fileID: 3246823120348858430}
  - component: {fileID: 3246823120348858370}
  m_Layer: 0
  m_Name: RopeCenter
  m_TagString: Untagged
  m_Icon: {fileID: 0}
  m_NavMeshLayer: 0
  m_StaticEditorFlags: 0
  m_IsActive: 1
--- !u!4 &3246823120348858430
Transform:
  m_ObjectHideFlags: 0
  m_CorrespondingSourceObject: {fileID: 0}
  m_PrefabInstance: {fileID: 0}
  m_PrefabAsset: {fileID: 0}
  m_GameObject: {fileID: 3246823120348858372}
  m_LocalRotation: {x: -0, y: -0, z: -0, w: 1}
  m_LocalPosition: {x: 0, y: 0, z: 0}
  m_LocalScale: {x: 1, y: 1, z: 1}
  m_Children:
  - {fileID: 1779418147626760965}
  m_Father: {fileID: 0}
  m_RootOrder: 0
  m_LocalEulerAnglesHint: {x: 0, y: 0, z: 0}
--- !u!54 &3246823120348858370
Rigidbody:
  m_ObjectHideFlags: 0
  m_CorrespondingSourceObject: {fileID: 0}
  m_PrefabInstance: {fileID: 0}
  m_PrefabAsset: {fileID: 0}
  m_GameObject: {fileID: 3246823120348858372}
  serializedVersion: 2
  m_Mass: 1
  m_Drag: 0
  m_AngularDrag: 0
  m_UseGravity: 0
  m_IsKinematic: 0
  m_Interpolate: 0
  m_Constraints: 126
  m_CollisionDetection: 0
--- !u!1001 &572356711564612120
PrefabInstance:
  m_ObjectHideFlags: 0
  serializedVersion: 2
  m_Modification:
    m_TransformParent: {fileID: 3246823120348858430}
    m_Modifications:
    - target: {fileID: 1444380775750562727, guid: ad52c85b8c254304a963b4f8eb4703be,
        type: 3}
      propertyPath: m_Name
      value: Rope
      objectReference: {fileID: 0}
    - target: {fileID: 2251984553813190941, guid: ad52c85b8c254304a963b4f8eb4703be,
        type: 3}
      propertyPath: m_LocalPosition.x
      value: -0
      objectReference: {fileID: 0}
    - target: {fileID: 2251984553813190941, guid: ad52c85b8c254304a963b4f8eb4703be,
        type: 3}
      propertyPath: m_LocalPosition.y
      value: 0
      objectReference: {fileID: 0}
    - target: {fileID: 2251984553813190941, guid: ad52c85b8c254304a963b4f8eb4703be,
        type: 3}
      propertyPath: m_LocalPosition.z
      value: 0
      objectReference: {fileID: 0}
    - target: {fileID: 2251984553813190941, guid: ad52c85b8c254304a963b4f8eb4703be,
        type: 3}
      propertyPath: m_LocalRotation.x
      value: 0
      objectReference: {fileID: 0}
    - target: {fileID: 2251984553813190941, guid: ad52c85b8c254304a963b4f8eb4703be,
        type: 3}
      propertyPath: m_LocalRotation.y
      value: -0
      objectReference: {fileID: 0}
    - target: {fileID: 2251984553813190941, guid: ad52c85b8c254304a963b4f8eb4703be,
        type: 3}
      propertyPath: m_LocalRotation.z
      value: -0
      objectReference: {fileID: 0}
    - target: {fileID: 2251984553813190941, guid: ad52c85b8c254304a963b4f8eb4703be,
        type: 3}
      propertyPath: m_LocalRotation.w
      value: 1
      objectReference: {fileID: 0}
    - target: {fileID: 2251984553813190941, guid: ad52c85b8c254304a963b4f8eb4703be,
        type: 3}
      propertyPath: m_RootOrder
      value: 0
      objectReference: {fileID: 0}
    - target: {fileID: 2251984553813190941, guid: ad52c85b8c254304a963b4f8eb4703be,
        type: 3}
      propertyPath: m_LocalEulerAnglesHint.x
      value: 0
      objectReference: {fileID: 0}
    - target: {fileID: 2251984553813190941, guid: ad52c85b8c254304a963b4f8eb4703be,
        type: 3}
      propertyPath: m_LocalEulerAnglesHint.y
      value: 0
      objectReference: {fileID: 0}
    - target: {fileID: 2251984553813190941, guid: ad52c85b8c254304a963b4f8eb4703be,
        type: 3}
      propertyPath: m_LocalEulerAnglesHint.z
      value: 0
      objectReference: {fileID: 0}
    m_RemovedComponents: []
  m_SourcePrefab: {fileID: 100100000, guid: ad52c85b8c254304a963b4f8eb4703be, type: 3}
--- !u!4 &1779418147626760965 stripped
Transform:
  m_CorrespondingSourceObject: {fileID: 2251984553813190941, guid: ad52c85b8c254304a963b4f8eb4703be,
    type: 3}
  m_PrefabInstance: {fileID: 572356711564612120}
  m_PrefabAsset: {fileID: 0}
