%YAML 1.1
%TAG !u! tag:unity3d.com,2011:
--- !u!1 &5605541554346948758
GameObject:
  m_ObjectHideFlags: 0
  m_CorrespondingSourceObject: {fileID: 0}
  m_PrefabInstance: {fileID: 0}
  m_PrefabAsset: {fileID: 0}
  serializedVersion: 6
  m_Component:
  - component: {fileID: 5605541554346948968}
  - component: {fileID: 5605541554346948756}
  - component: {fileID: 1856794613}
  m_Layer: 0
  m_Name: RopeItemCorner
  m_TagString: Untagged
  m_Icon: {fileID: 0}
  m_NavMeshLayer: 0
  m_StaticEditorFlags: 0
  m_IsActive: 1
--- !u!4 &5605541554346948968
Transform:
  m_ObjectHideFlags: 0
  m_CorrespondingSourceObject: {fileID: 0}
  m_PrefabInstance: {fileID: 0}
  m_PrefabAsset: {fileID: 0}
  m_GameObject: {fileID: 5605541554346948758}
  m_LocalRotation: {x: 0, y: 0, z: 0, w: 1}
  m_LocalPosition: {x: 0, y: 0, z: 0}
  m_LocalScale: {x: 1, y: 1, z: 1}
  m_Children:
  - {fileID: 8315352214964651947}
  m_Father: {fileID: 0}
  m_RootOrder: 0
  m_LocalEulerAnglesHint: {x: 0, y: 0, z: 0}
--- !u!54 &5605541554346948756
Rigidbody:
  m_ObjectHideFlags: 0
  m_CorrespondingSourceObject: {fileID: 0}
  m_PrefabInstance: {fileID: 0}
  m_PrefabAsset: {fileID: 0}
  m_GameObject: {fileID: 5605541554346948758}
  serializedVersion: 2
  m_Mass: 1
  m_Drag: 0
  m_AngularDrag: 0
  m_UseGravity: 0
  m_IsKinematic: 0
  m_Interpolate: 0
  m_Constraints: 126
  m_CollisionDetection: 0
--- !u!138 &1856794613
FixedJoint:
  m_ObjectHideFlags: 0
  m_CorrespondingSourceObject: {fileID: 0}
  m_PrefabInstance: {fileID: 0}
  m_PrefabAsset: {fileID: 0}
  m_GameObject: {fileID: 5605541554346948758}
  m_ConnectedBody: {fileID: 0}
  m_BreakForce: Infinity
  m_BreakTorque: Infinity
  m_EnableCollision: 0
  m_EnablePreprocessing: 1
  m_MassScale: 1
  m_ConnectedMassScale: 1
--- !u!1001 &7793119396935397046
PrefabInstance:
  m_ObjectHideFlags: 0
  serializedVersion: 2
  m_Modification:
    m_TransformParent: {fileID: 5605541554346948968}
    m_Modifications:
    - target: {fileID: 1444380775750562727, guid: ad52c85b8c254304a963b4f8eb4703be,
        type: 3}
      propertyPath: m_Name
      value: rope_mesh
      objectReference: {fileID: 0}
    - target: {fileID: 2251984553813190941, guid: ad52c85b8c254304a963b4f8eb4703be,
        type: 3}
      propertyPath: m_LocalPosition.x
      value: -0
      objectReference: {fileID: 0}
    - target: {fileID: 2251984553813190941, guid: ad52c85b8c254304a963b4f8eb4703be,
        type: 3}
      propertyPath: m_LocalPosition.y
      value: 0
      objectReference: {fileID: 0}
    - target: {fileID: 2251984553813190941, guid: ad52c85b8c254304a963b4f8eb4703be,
        type: 3}
      propertyPath: m_LocalPosition.z
      value: 0
      objectReference: {fileID: 0}
    - target: {fileID: 2251984553813190941, guid: ad52c85b8c254304a963b4f8eb4703be,
        type: 3}
      propertyPath: m_LocalRotation.x
      value: 0
      objectReference: {fileID: 0}
    - target: {fileID: 2251984553813190941, guid: ad52c85b8c254304a963b4f8eb4703be,
        type: 3}
      propertyPath: m_LocalRotation.y
      value: -0
      objectReference: {fileID: 0}
    - target: {fileID: 2251984553813190941, guid: ad52c85b8c254304a963b4f8eb4703be,
        type: 3}
      propertyPath: m_LocalRotation.z
      value: -0
      objectReference: {fileID: 0}
    - target: {fileID: 2251984553813190941, guid: ad52c85b8c254304a963b4f8eb4703be,
        type: 3}
      propertyPath: m_LocalRotation.w
      value: 1
      objectReference: {fileID: 0}
    - target: {fileID: 2251984553813190941, guid: ad52c85b8c254304a963b4f8eb4703be,
        type: 3}
      propertyPath: m_RootOrder
      value: 0
      objectReference: {fileID: 0}
    - target: {fileID: 2251984553813190941, guid: ad52c85b8c254304a963b4f8eb4703be,
        type: 3}
      propertyPath: m_LocalEulerAnglesHint.x
      value: 0
      objectReference: {fileID: 0}
    - target: {fileID: 2251984553813190941, guid: ad52c85b8c254304a963b4f8eb4703be,
        type: 3}
      propertyPath: m_LocalEulerAnglesHint.y
      value: 0
      objectReference: {fileID: 0}
    - target: {fileID: 2251984553813190941, guid: ad52c85b8c254304a963b4f8eb4703be,
        type: 3}
      propertyPath: m_LocalEulerAnglesHint.z
      value: 0
      objectReference: {fileID: 0}
    m_RemovedComponents: []
  m_SourcePrefab: {fileID: 100100000, guid: ad52c85b8c254304a963b4f8eb4703be, type: 3}
--- !u!4 &8315352214964651947 stripped
Transform:
  m_CorrespondingSourceObject: {fileID: 2251984553813190941, guid: ad52c85b8c254304a963b4f8eb4703be,
    type: 3}
  m_PrefabInstance: {fileID: 7793119396935397046}
  m_PrefabAsset: {fileID: 0}
