%YAML 1.1
%TAG !u! tag:unity3d.com,2011:
--- !u!114 &11400000
MonoBehaviour:
  m_ObjectHideFlags: 0
  m_CorrespondingSourceObject: {fileID: 0}
  m_PrefabInstance: {fileID: 0}
  m_PrefabAsset: {fileID: 0}
  m_GameObject: {fileID: 0}
  m_Enabled: 1
  m_EditorHideFlags: 0
  m_Script: {fileID: 11500000, guid: 540a02194f810994282180a9e72126f9, type: 3}
  m_Name: road_property_data
  m_EditorClassIdentifier: 
  minLevel: 0
  maxLevel: 10
  difficulty: 1
  minBombCount: 0
  maxBombCount: 2
  minBalloonForwardUnit: 20
  balloonHeightOffset: 2.5
  maxBalloonForwardUnit: 35
  minBalloonCount: 0
  maxBalloonCount: 2
  distanceBetweenObstacles: 2.18
  totalObjectCountEachOther: 5
  frequencyBeingEmpty: 3
  startingYPoint: 1.5
  upperUnit: 60
  startingZPoint: 16.8
  minForwardUnit: 10
  maxForwardUnity: 15
  cloudDensity: 0.193
  cloudHeightAboveGround: 25
