%YAML 1.1
%TAG !u! tag:unity3d.com,2011:
--- !u!1045 &1
EditorBuildSettings:
  m_ObjectHideFlags: 0
  serializedVersion: 2
  m_Scenes:
  - enabled: 1
    path: Assets/SurfingBomb/Scenes/SurfingBomb.unity
    guid: 28377f37ccd7f734b8a777cc4faa9a9c
  m_configObjects: {}
