%YAML 1.1
%TAG !u! tag:unity3d.com,2011:
--- !u!1 &5875174855307194634
GameObject:
  m_ObjectHideFlags: 0
  m_CorrespondingSourceObject: {fileID: 0}
  m_PrefabInstance: {fileID: 0}
  m_PrefabAsset: {fileID: 0}
  serializedVersion: 6
  m_Component:
  - component: {fileID: 257424491101595508}
  - component: {fileID: -5092321519450894034}
  - component: {fileID: 3516523396417916274}
  - component: {fileID: 5972093049538521785}
  m_Layer: 0
  m_Name: 3.0
  m_TagString: WillDestroy
  m_Icon: {fileID: 0}
  m_NavMeshLayer: 0
  m_StaticEditorFlags: 0
  m_IsActive: 1
--- !u!4 &257424491101595508
Transform:
  m_ObjectHideFlags: 0
  m_CorrespondingSourceObject: {fileID: 0}
  m_PrefabInstance: {fileID: 0}
  m_PrefabAsset: {fileID: 0}
  m_GameObject: {fileID: 5875174855307194634}
  m_LocalRotation: {x: 0, y: 0, z: 0, w: 1}
  m_LocalPosition: {x: -0.1, y: 5, z: 20}
  m_LocalScale: {x: 1, y: 1, z: 1}
  m_Children:
  - {fileID: 4627327960791106974}
  - {fileID: 7125563726580838638}
  - {fileID: 2288567378539012589}
  - {fileID: 8731894607852355820}
  - {fileID: 8588268752821748764}
  - {fileID: 7227983147292076139}
  - {fileID: 4331863570885656080}
  m_Father: {fileID: 0}
  m_RootOrder: 0
  m_LocalEulerAnglesHint: {x: 0, y: 0, z: 0}
--- !u!65 &-5092321519450894034
BoxCollider:
  m_ObjectHideFlags: 0
  m_CorrespondingSourceObject: {fileID: 0}
  m_PrefabInstance: {fileID: 0}
  m_PrefabAsset: {fileID: 0}
  m_GameObject: {fileID: 5875174855307194634}
  m_Material: {fileID: 0}
  m_IsTrigger: 1
  m_Enabled: 1
  serializedVersion: 2
  m_Size: {x: 0.5, y: 10, z: 200}
  m_Center: {x: 0, y: 10, z: 40}
--- !u!54 &3516523396417916274
Rigidbody:
  m_ObjectHideFlags: 0
  m_CorrespondingSourceObject: {fileID: 0}
  m_PrefabInstance: {fileID: 0}
  m_PrefabAsset: {fileID: 0}
  m_GameObject: {fileID: 5875174855307194634}
  serializedVersion: 2
  m_Mass: 1
  m_Drag: 0
  m_AngularDrag: 0.05
  m_UseGravity: 0
  m_IsKinematic: 1
  m_Interpolate: 0
  m_Constraints: 0
  m_CollisionDetection: 0
--- !u!114 &5972093049538521785
MonoBehaviour:
  m_ObjectHideFlags: 0
  m_CorrespondingSourceObject: {fileID: 0}
  m_PrefabInstance: {fileID: 0}
  m_PrefabAsset: {fileID: 0}
  m_GameObject: {fileID: 5875174855307194634}
  m_Enabled: 1
  m_EditorHideFlags: 0
  m_Script: {fileID: 11500000, guid: 3a3840b7d0d6cfe429275e3041f1a1fa, type: 3}
  m_Name: 
  m_EditorClassIdentifier: 
  IsGameStarted: 0
  EventGameStatus:
    m_PersistentCalls:
      m_Calls: []
  IsStoreCollisions: 0
  IsStoreTriggers: 0
  IsListenTouchEvent: 0
  rb: {fileID: 0}
  EventCollision:
    m_PersistentCalls:
      m_Calls: []
  PrefabName: 
  IsInited: 0
--- !u!1001 &1488285772513761400
PrefabInstance:
  m_ObjectHideFlags: 0
  serializedVersion: 2
  m_Modification:
    m_TransformParent: {fileID: 257424491101595508}
    m_Modifications:
    - target: {fileID: 1033440492506627369, guid: 37534169406154e4ca42a100491e7722,
        type: 3}
      propertyPath: m_ConnectedAnchor.x
      value: -0.00000032037494
      objectReference: {fileID: 0}
    - target: {fileID: 1033440492506627369, guid: 37534169406154e4ca42a100491e7722,
        type: 3}
      propertyPath: m_ConnectedAnchor.y
      value: 0.083408214
      objectReference: {fileID: 0}
    - target: {fileID: 1033440492506627369, guid: 37534169406154e4ca42a100491e7722,
        type: 3}
      propertyPath: m_ConnectedAnchor.z
      value: -0.00000005960465
      objectReference: {fileID: 0}
    - target: {fileID: 1033440492702229238, guid: 37534169406154e4ca42a100491e7722,
        type: 3}
      propertyPath: m_ConnectedAnchor.x
      value: -0.0000000102154445
      objectReference: {fileID: 0}
    - target: {fileID: 1033440492702229238, guid: 37534169406154e4ca42a100491e7722,
        type: 3}
      propertyPath: m_ConnectedAnchor.y
      value: 0.0411912
      objectReference: {fileID: 0}
    - target: {fileID: 1033440492702229238, guid: 37534169406154e4ca42a100491e7722,
        type: 3}
      propertyPath: m_ConnectedAnchor.z
      value: -0.00000035366972
      objectReference: {fileID: 0}
    - target: {fileID: 1033440492958754807, guid: 37534169406154e4ca42a100491e7722,
        type: 3}
      propertyPath: m_ConnectedAnchor.x
      value: -0.00054260367
      objectReference: {fileID: 0}
    - target: {fileID: 1033440492958754807, guid: 37534169406154e4ca42a100491e7722,
        type: 3}
      propertyPath: m_ConnectedAnchor.y
      value: 0.13266896
      objectReference: {fileID: 0}
    - target: {fileID: 1033440492958754807, guid: 37534169406154e4ca42a100491e7722,
        type: 3}
      propertyPath: m_ConnectedAnchor.z
      value: -0.00031447317
      objectReference: {fileID: 0}
    - target: {fileID: 1033440493142499281, guid: 37534169406154e4ca42a100491e7722,
        type: 3}
      propertyPath: m_ConnectedAnchor.x
      value: -0.0000002374577
      objectReference: {fileID: 0}
    - target: {fileID: 1033440493142499281, guid: 37534169406154e4ca42a100491e7722,
        type: 3}
      propertyPath: m_ConnectedAnchor.y
      value: 0.09415894
      objectReference: {fileID: 0}
    - target: {fileID: 1033440493142499281, guid: 37534169406154e4ca42a100491e7722,
        type: 3}
      propertyPath: m_ConnectedAnchor.z
      value: -0.00000016996549
      objectReference: {fileID: 0}
    - target: {fileID: 1033440493180972497, guid: 37534169406154e4ca42a100491e7722,
        type: 3}
      propertyPath: m_ConnectedAnchor.x
      value: -0.052422203
      objectReference: {fileID: 0}
    - target: {fileID: 1033440493180972497, guid: 37534169406154e4ca42a100491e7722,
        type: 3}
      propertyPath: m_ConnectedAnchor.y
      value: 0.068112604
      objectReference: {fileID: 0}
    - target: {fileID: 1033440493180972497, guid: 37534169406154e4ca42a100491e7722,
        type: 3}
      propertyPath: m_ConnectedAnchor.z
      value: -0.010214621
      objectReference: {fileID: 0}
    - target: {fileID: 1033440493383173035, guid: 37534169406154e4ca42a100491e7722,
        type: 3}
      propertyPath: m_ConnectedAnchor.x
      value: 0.043379255
      objectReference: {fileID: 0}
    - target: {fileID: 1033440493383173035, guid: 37534169406154e4ca42a100491e7722,
        type: 3}
      propertyPath: m_ConnectedAnchor.y
      value: -0.019612279
      objectReference: {fileID: 0}
    - target: {fileID: 1033440493383173035, guid: 37534169406154e4ca42a100491e7722,
        type: 3}
      propertyPath: m_ConnectedAnchor.z
      value: -0.00054742163
      objectReference: {fileID: 0}
    - target: {fileID: 1033440493459963331, guid: 37534169406154e4ca42a100491e7722,
        type: 3}
      propertyPath: m_ConnectedAnchor.x
      value: 0.051218774
      objectReference: {fileID: 0}
    - target: {fileID: 1033440493459963331, guid: 37534169406154e4ca42a100491e7722,
        type: 3}
      propertyPath: m_ConnectedAnchor.y
      value: 0.06729273
      objectReference: {fileID: 0}
    - target: {fileID: 1033440493459963331, guid: 37534169406154e4ca42a100491e7722,
        type: 3}
      propertyPath: m_ConnectedAnchor.z
      value: 0.012842845
      objectReference: {fileID: 0}
    - target: {fileID: 1033440493576328614, guid: 37534169406154e4ca42a100491e7722,
        type: 3}
      propertyPath: m_ConnectedAnchor.x
      value: -0.00000025249025
      objectReference: {fileID: 0}
    - target: {fileID: 1033440493576328614, guid: 37534169406154e4ca42a100491e7722,
        type: 3}
      propertyPath: m_ConnectedAnchor.y
      value: 0.08341814
      objectReference: {fileID: 0}
    - target: {fileID: 1033440493576328614, guid: 37534169406154e4ca42a100491e7722,
        type: 3}
      propertyPath: m_ConnectedAnchor.z
      value: -0.00000012665986
      objectReference: {fileID: 0}
    - target: {fileID: 1033440493637290138, guid: 37534169406154e4ca42a100491e7722,
        type: 3}
      propertyPath: m_ConnectedAnchor.x
      value: -0.04337949
      objectReference: {fileID: 0}
    - target: {fileID: 1033440493637290138, guid: 37534169406154e4ca42a100491e7722,
        type: 3}
      propertyPath: m_ConnectedAnchor.y
      value: -0.01961228
      objectReference: {fileID: 0}
    - target: {fileID: 1033440493637290138, guid: 37534169406154e4ca42a100491e7722,
        type: 3}
      propertyPath: m_ConnectedAnchor.z
      value: -0.0008189734
      objectReference: {fileID: 0}
    - target: {fileID: 1033440493709441144, guid: 37534169406154e4ca42a100491e7722,
        type: 3}
      propertyPath: m_ConnectedAnchor.x
      value: 0.000000014898475
      objectReference: {fileID: 0}
    - target: {fileID: 1033440493709441144, guid: 37534169406154e4ca42a100491e7722,
        type: 3}
      propertyPath: m_ConnectedAnchor.y
      value: 0.09415962
      objectReference: {fileID: 0}
    - target: {fileID: 1033440493709441144, guid: 37534169406154e4ca42a100491e7722,
        type: 3}
      propertyPath: m_ConnectedAnchor.z
      value: -0.000000050291373
      objectReference: {fileID: 0}
    - target: {fileID: 2934846060136982120, guid: 37534169406154e4ca42a100491e7722,
        type: 3}
      propertyPath: m_LocalPosition.x
      value: -6.3
      objectReference: {fileID: 0}
    - target: {fileID: 2934846060136982120, guid: 37534169406154e4ca42a100491e7722,
        type: 3}
      propertyPath: m_LocalPosition.y
      value: -2.5
      objectReference: {fileID: 0}
    - target: {fileID: 2934846060136982120, guid: 37534169406154e4ca42a100491e7722,
        type: 3}
      propertyPath: m_LocalPosition.z
      value: 27.86
      objectReference: {fileID: 0}
    - target: {fileID: 2934846060136982120, guid: 37534169406154e4ca42a100491e7722,
        type: 3}
      propertyPath: m_LocalRotation.x
      value: 0
      objectReference: {fileID: 0}
    - target: {fileID: 2934846060136982120, guid: 37534169406154e4ca42a100491e7722,
        type: 3}
      propertyPath: m_LocalRotation.y
      value: 1
      objectReference: {fileID: 0}
    - target: {fileID: 2934846060136982120, guid: 37534169406154e4ca42a100491e7722,
        type: 3}
      propertyPath: m_LocalRotation.z
      value: 0
      objectReference: {fileID: 0}
    - target: {fileID: 2934846060136982120, guid: 37534169406154e4ca42a100491e7722,
        type: 3}
      propertyPath: m_LocalRotation.w
      value: 0
      objectReference: {fileID: 0}
    - target: {fileID: 2934846060136982120, guid: 37534169406154e4ca42a100491e7722,
        type: 3}
      propertyPath: m_RootOrder
      value: 6
      objectReference: {fileID: 0}
    - target: {fileID: 2934846060136982120, guid: 37534169406154e4ca42a100491e7722,
        type: 3}
      propertyPath: m_LocalEulerAnglesHint.x
      value: 0
      objectReference: {fileID: 0}
    - target: {fileID: 2934846060136982120, guid: 37534169406154e4ca42a100491e7722,
        type: 3}
      propertyPath: m_LocalEulerAnglesHint.y
      value: 180
      objectReference: {fileID: 0}
    - target: {fileID: 2934846060136982120, guid: 37534169406154e4ca42a100491e7722,
        type: 3}
      propertyPath: m_LocalEulerAnglesHint.z
      value: 0
      objectReference: {fileID: 0}
    - target: {fileID: 3282563561134706224, guid: 37534169406154e4ca42a100491e7722,
        type: 3}
      propertyPath: m_Name
      value: Enemy (5)
      objectReference: {fileID: 0}
    - target: {fileID: 3282563561134706224, guid: 37534169406154e4ca42a100491e7722,
        type: 3}
      propertyPath: m_IsActive
      value: 1
      objectReference: {fileID: 0}
    - target: {fileID: 3491025952524276213, guid: 37534169406154e4ca42a100491e7722,
        type: 3}
      propertyPath: runToPlayer_Speed
      value: 5
      objectReference: {fileID: 0}
    - target: {fileID: 3491025952524276213, guid: 37534169406154e4ca42a100491e7722,
        type: 3}
      propertyPath: LookToPlayer_Speed
      value: 5
      objectReference: {fileID: 0}
    - target: {fileID: 7348930952128093302, guid: 37534169406154e4ca42a100491e7722,
        type: 3}
      propertyPath: m_Size.x
      value: 2
      objectReference: {fileID: 0}
    m_RemovedComponents: []
  m_SourcePrefab: {fileID: 100100000, guid: 37534169406154e4ca42a100491e7722, type: 3}
--- !u!4 &4331863570885656080 stripped
Transform:
  m_CorrespondingSourceObject: {fileID: 2934846060136982120, guid: 37534169406154e4ca42a100491e7722,
    type: 3}
  m_PrefabInstance: {fileID: 1488285772513761400}
  m_PrefabAsset: {fileID: 0}
--- !u!1001 &3997003042170210181
PrefabInstance:
  m_ObjectHideFlags: 0
  serializedVersion: 2
  m_Modification:
    m_TransformParent: {fileID: 257424491101595508}
    m_Modifications:
    - target: {fileID: 1033440492506627369, guid: 37534169406154e4ca42a100491e7722,
        type: 3}
      propertyPath: m_ConnectedAnchor.x
      value: -0.000000069849186
      objectReference: {fileID: 0}
    - target: {fileID: 1033440492506627369, guid: 37534169406154e4ca42a100491e7722,
        type: 3}
      propertyPath: m_ConnectedAnchor.y
      value: 0.08340823
      objectReference: {fileID: 0}
    - target: {fileID: 1033440492506627369, guid: 37534169406154e4ca42a100491e7722,
        type: 3}
      propertyPath: m_ConnectedAnchor.z
      value: -0.000000037252907
      objectReference: {fileID: 0}
    - target: {fileID: 1033440492702229238, guid: 37534169406154e4ca42a100491e7722,
        type: 3}
      propertyPath: m_ConnectedAnchor.x
      value: -0.000000005355105
      objectReference: {fileID: 0}
    - target: {fileID: 1033440492702229238, guid: 37534169406154e4ca42a100491e7722,
        type: 3}
      propertyPath: m_ConnectedAnchor.y
      value: 0.041191194
      objectReference: {fileID: 0}
    - target: {fileID: 1033440492702229238, guid: 37534169406154e4ca42a100491e7722,
        type: 3}
      propertyPath: m_ConnectedAnchor.z
      value: -0.000000102794715
      objectReference: {fileID: 0}
    - target: {fileID: 1033440492958754807, guid: 37534169406154e4ca42a100491e7722,
        type: 3}
      propertyPath: m_ConnectedAnchor.x
      value: -0.00054260367
      objectReference: {fileID: 0}
    - target: {fileID: 1033440492958754807, guid: 37534169406154e4ca42a100491e7722,
        type: 3}
      propertyPath: m_ConnectedAnchor.y
      value: 0.13266896
      objectReference: {fileID: 0}
    - target: {fileID: 1033440492958754807, guid: 37534169406154e4ca42a100491e7722,
        type: 3}
      propertyPath: m_ConnectedAnchor.z
      value: -0.00031447317
      objectReference: {fileID: 0}
    - target: {fileID: 1033440493142499281, guid: 37534169406154e4ca42a100491e7722,
        type: 3}
      propertyPath: m_ConnectedAnchor.x
      value: -0.0000000279362
      objectReference: {fileID: 0}
    - target: {fileID: 1033440493142499281, guid: 37534169406154e4ca42a100491e7722,
        type: 3}
      propertyPath: m_ConnectedAnchor.y
      value: 0.094158925
      objectReference: {fileID: 0}
    - target: {fileID: 1033440493142499281, guid: 37534169406154e4ca42a100491e7722,
        type: 3}
      propertyPath: m_ConnectedAnchor.z
      value: -0.000000031664804
      objectReference: {fileID: 0}
    - target: {fileID: 1033440493180972497, guid: 37534169406154e4ca42a100491e7722,
        type: 3}
      propertyPath: m_ConnectedAnchor.x
      value: -0.05242219
      objectReference: {fileID: 0}
    - target: {fileID: 1033440493180972497, guid: 37534169406154e4ca42a100491e7722,
        type: 3}
      propertyPath: m_ConnectedAnchor.y
      value: 0.068112604
      objectReference: {fileID: 0}
    - target: {fileID: 1033440493180972497, guid: 37534169406154e4ca42a100491e7722,
        type: 3}
      propertyPath: m_ConnectedAnchor.z
      value: -0.010214625
      objectReference: {fileID: 0}
    - target: {fileID: 1033440493383173035, guid: 37534169406154e4ca42a100491e7722,
        type: 3}
      propertyPath: m_ConnectedAnchor.x
      value: 0.043379404
      objectReference: {fileID: 0}
    - target: {fileID: 1033440493383173035, guid: 37534169406154e4ca42a100491e7722,
        type: 3}
      propertyPath: m_ConnectedAnchor.y
      value: -0.019612275
      objectReference: {fileID: 0}
    - target: {fileID: 1033440493383173035, guid: 37534169406154e4ca42a100491e7722,
        type: 3}
      propertyPath: m_ConnectedAnchor.z
      value: -0.00054762466
      objectReference: {fileID: 0}
    - target: {fileID: 1033440493459963331, guid: 37534169406154e4ca42a100491e7722,
        type: 3}
      propertyPath: m_ConnectedAnchor.x
      value: 0.051218856
      objectReference: {fileID: 0}
    - target: {fileID: 1033440493459963331, guid: 37534169406154e4ca42a100491e7722,
        type: 3}
      propertyPath: m_ConnectedAnchor.y
      value: 0.06729274
      objectReference: {fileID: 0}
    - target: {fileID: 1033440493459963331, guid: 37534169406154e4ca42a100491e7722,
        type: 3}
      propertyPath: m_ConnectedAnchor.z
      value: 0.012843082
      objectReference: {fileID: 0}
    - target: {fileID: 1033440493576328614, guid: 37534169406154e4ca42a100491e7722,
        type: 3}
      propertyPath: m_ConnectedAnchor.x
      value: -0.00000003179593
      objectReference: {fileID: 0}
    - target: {fileID: 1033440493576328614, guid: 37534169406154e4ca42a100491e7722,
        type: 3}
      propertyPath: m_ConnectedAnchor.y
      value: 0.083418086
      objectReference: {fileID: 0}
    - target: {fileID: 1033440493576328614, guid: 37534169406154e4ca42a100491e7722,
        type: 3}
      propertyPath: m_ConnectedAnchor.z
      value: -0.000000011175869
      objectReference: {fileID: 0}
    - target: {fileID: 1033440493637290138, guid: 37534169406154e4ca42a100491e7722,
        type: 3}
      propertyPath: m_ConnectedAnchor.x
      value: -0.04337938
      objectReference: {fileID: 0}
    - target: {fileID: 1033440493637290138, guid: 37534169406154e4ca42a100491e7722,
        type: 3}
      propertyPath: m_ConnectedAnchor.y
      value: -0.019612275
      objectReference: {fileID: 0}
    - target: {fileID: 1033440493637290138, guid: 37534169406154e4ca42a100491e7722,
        type: 3}
      propertyPath: m_ConnectedAnchor.z
      value: -0.0008192025
      objectReference: {fileID: 0}
    - target: {fileID: 1033440493709441144, guid: 37534169406154e4ca42a100491e7722,
        type: 3}
      propertyPath: m_ConnectedAnchor.x
      value: -0.000000014898475
      objectReference: {fileID: 0}
    - target: {fileID: 1033440493709441144, guid: 37534169406154e4ca42a100491e7722,
        type: 3}
      propertyPath: m_ConnectedAnchor.y
      value: 0.09415961
      objectReference: {fileID: 0}
    - target: {fileID: 1033440493709441144, guid: 37534169406154e4ca42a100491e7722,
        type: 3}
      propertyPath: m_ConnectedAnchor.z
      value: -0.0000000428408
      objectReference: {fileID: 0}
    - target: {fileID: 2934846060136982120, guid: 37534169406154e4ca42a100491e7722,
        type: 3}
      propertyPath: m_LocalPosition.x
      value: -1.7
      objectReference: {fileID: 0}
    - target: {fileID: 2934846060136982120, guid: 37534169406154e4ca42a100491e7722,
        type: 3}
      propertyPath: m_LocalPosition.y
      value: -2.5
      objectReference: {fileID: 0}
    - target: {fileID: 2934846060136982120, guid: 37534169406154e4ca42a100491e7722,
        type: 3}
      propertyPath: m_LocalPosition.z
      value: -17.539999
      objectReference: {fileID: 0}
    - target: {fileID: 2934846060136982120, guid: 37534169406154e4ca42a100491e7722,
        type: 3}
      propertyPath: m_LocalRotation.x
      value: 0
      objectReference: {fileID: 0}
    - target: {fileID: 2934846060136982120, guid: 37534169406154e4ca42a100491e7722,
        type: 3}
      propertyPath: m_LocalRotation.y
      value: 1
      objectReference: {fileID: 0}
    - target: {fileID: 2934846060136982120, guid: 37534169406154e4ca42a100491e7722,
        type: 3}
      propertyPath: m_LocalRotation.z
      value: 0
      objectReference: {fileID: 0}
    - target: {fileID: 2934846060136982120, guid: 37534169406154e4ca42a100491e7722,
        type: 3}
      propertyPath: m_LocalRotation.w
      value: 0
      objectReference: {fileID: 0}
    - target: {fileID: 2934846060136982120, guid: 37534169406154e4ca42a100491e7722,
        type: 3}
      propertyPath: m_RootOrder
      value: 2
      objectReference: {fileID: 0}
    - target: {fileID: 2934846060136982120, guid: 37534169406154e4ca42a100491e7722,
        type: 3}
      propertyPath: m_LocalEulerAnglesHint.x
      value: 0
      objectReference: {fileID: 0}
    - target: {fileID: 2934846060136982120, guid: 37534169406154e4ca42a100491e7722,
        type: 3}
      propertyPath: m_LocalEulerAnglesHint.y
      value: 180
      objectReference: {fileID: 0}
    - target: {fileID: 2934846060136982120, guid: 37534169406154e4ca42a100491e7722,
        type: 3}
      propertyPath: m_LocalEulerAnglesHint.z
      value: 0
      objectReference: {fileID: 0}
    - target: {fileID: 3282563561134706224, guid: 37534169406154e4ca42a100491e7722,
        type: 3}
      propertyPath: m_Name
      value: Enemy (3)
      objectReference: {fileID: 0}
    - target: {fileID: 3282563561134706224, guid: 37534169406154e4ca42a100491e7722,
        type: 3}
      propertyPath: m_IsActive
      value: 1
      objectReference: {fileID: 0}
    - target: {fileID: 3491025952524276213, guid: 37534169406154e4ca42a100491e7722,
        type: 3}
      propertyPath: runToPlayer_Speed
      value: 5
      objectReference: {fileID: 0}
    - target: {fileID: 3491025952524276213, guid: 37534169406154e4ca42a100491e7722,
        type: 3}
      propertyPath: LookToPlayer_Speed
      value: 5
      objectReference: {fileID: 0}
    - target: {fileID: 7348930952128093302, guid: 37534169406154e4ca42a100491e7722,
        type: 3}
      propertyPath: m_Size.x
      value: 2
      objectReference: {fileID: 0}
    m_RemovedComponents: []
  m_SourcePrefab: {fileID: 100100000, guid: 37534169406154e4ca42a100491e7722, type: 3}
--- !u!4 &2288567378539012589 stripped
Transform:
  m_CorrespondingSourceObject: {fileID: 2934846060136982120, guid: 37534169406154e4ca42a100491e7722,
    type: 3}
  m_PrefabInstance: {fileID: 3997003042170210181}
  m_PrefabAsset: {fileID: 0}
--- !u!1001 &4011396088302183942
PrefabInstance:
  m_ObjectHideFlags: 0
  serializedVersion: 2
  m_Modification:
    m_TransformParent: {fileID: 257424491101595508}
    m_Modifications:
    - target: {fileID: 1287272898028398252, guid: b5e509801caf4f547abe61af0bfcee5c,
        type: 3}
      propertyPath: m_Name
      value: Wall
      objectReference: {fileID: 0}
    - target: {fileID: 4368303057021738950, guid: b5e509801caf4f547abe61af0bfcee5c,
        type: 3}
      propertyPath: movailableWall
      value: 1
      objectReference: {fileID: 0}
    - target: {fileID: 5658417364024485610, guid: b5e509801caf4f547abe61af0bfcee5c,
        type: 3}
      propertyPath: m_LocalPosition.x
      value: 10.717771
      objectReference: {fileID: 0}
    - target: {fileID: 5658417364024485610, guid: b5e509801caf4f547abe61af0bfcee5c,
        type: 3}
      propertyPath: m_LocalPosition.y
      value: -2.5
      objectReference: {fileID: 0}
    - target: {fileID: 5658417364024485610, guid: b5e509801caf4f547abe61af0bfcee5c,
        type: 3}
      propertyPath: m_LocalPosition.z
      value: -30.8
      objectReference: {fileID: 0}
    - target: {fileID: 5658417364024485610, guid: b5e509801caf4f547abe61af0bfcee5c,
        type: 3}
      propertyPath: m_LocalRotation.x
      value: -0
      objectReference: {fileID: 0}
    - target: {fileID: 5658417364024485610, guid: b5e509801caf4f547abe61af0bfcee5c,
        type: 3}
      propertyPath: m_LocalRotation.y
      value: -0
      objectReference: {fileID: 0}
    - target: {fileID: 5658417364024485610, guid: b5e509801caf4f547abe61af0bfcee5c,
        type: 3}
      propertyPath: m_LocalRotation.z
      value: -0
      objectReference: {fileID: 0}
    - target: {fileID: 5658417364024485610, guid: b5e509801caf4f547abe61af0bfcee5c,
        type: 3}
      propertyPath: m_LocalRotation.w
      value: 1
      objectReference: {fileID: 0}
    - target: {fileID: 5658417364024485610, guid: b5e509801caf4f547abe61af0bfcee5c,
        type: 3}
      propertyPath: m_RootOrder
      value: 3
      objectReference: {fileID: 0}
    - target: {fileID: 5658417364024485610, guid: b5e509801caf4f547abe61af0bfcee5c,
        type: 3}
      propertyPath: m_LocalEulerAnglesHint.x
      value: 0
      objectReference: {fileID: 0}
    - target: {fileID: 5658417364024485610, guid: b5e509801caf4f547abe61af0bfcee5c,
        type: 3}
      propertyPath: m_LocalEulerAnglesHint.y
      value: 0
      objectReference: {fileID: 0}
    - target: {fileID: 5658417364024485610, guid: b5e509801caf4f547abe61af0bfcee5c,
        type: 3}
      propertyPath: m_LocalEulerAnglesHint.z
      value: 0
      objectReference: {fileID: 0}
    m_RemovedComponents: []
  m_SourcePrefab: {fileID: 100100000, guid: b5e509801caf4f547abe61af0bfcee5c, type: 3}
--- !u!4 &8731894607852355820 stripped
Transform:
  m_CorrespondingSourceObject: {fileID: 5658417364024485610, guid: b5e509801caf4f547abe61af0bfcee5c,
    type: 3}
  m_PrefabInstance: {fileID: 4011396088302183942}
  m_PrefabAsset: {fileID: 0}
--- !u!1001 &4154874608837976822
PrefabInstance:
  m_ObjectHideFlags: 0
  serializedVersion: 2
  m_Modification:
    m_TransformParent: {fileID: 257424491101595508}
    m_Modifications:
    - target: {fileID: 1287272898028398252, guid: b5e509801caf4f547abe61af0bfcee5c,
        type: 3}
      propertyPath: m_Name
      value: Wall (1)
      objectReference: {fileID: 0}
    - target: {fileID: 4368303057021738950, guid: b5e509801caf4f547abe61af0bfcee5c,
        type: 3}
      propertyPath: movailableWall
      value: 1
      objectReference: {fileID: 0}
    - target: {fileID: 5658417364024485610, guid: b5e509801caf4f547abe61af0bfcee5c,
        type: 3}
      propertyPath: m_LocalPosition.x
      value: -11.3
      objectReference: {fileID: 0}
    - target: {fileID: 5658417364024485610, guid: b5e509801caf4f547abe61af0bfcee5c,
        type: 3}
      propertyPath: m_LocalPosition.y
      value: -2.5
      objectReference: {fileID: 0}
    - target: {fileID: 5658417364024485610, guid: b5e509801caf4f547abe61af0bfcee5c,
        type: 3}
      propertyPath: m_LocalPosition.z
      value: 22.8
      objectReference: {fileID: 0}
    - target: {fileID: 5658417364024485610, guid: b5e509801caf4f547abe61af0bfcee5c,
        type: 3}
      propertyPath: m_LocalRotation.x
      value: -0
      objectReference: {fileID: 0}
    - target: {fileID: 5658417364024485610, guid: b5e509801caf4f547abe61af0bfcee5c,
        type: 3}
      propertyPath: m_LocalRotation.y
      value: -0
      objectReference: {fileID: 0}
    - target: {fileID: 5658417364024485610, guid: b5e509801caf4f547abe61af0bfcee5c,
        type: 3}
      propertyPath: m_LocalRotation.z
      value: -0
      objectReference: {fileID: 0}
    - target: {fileID: 5658417364024485610, guid: b5e509801caf4f547abe61af0bfcee5c,
        type: 3}
      propertyPath: m_LocalRotation.w
      value: 1
      objectReference: {fileID: 0}
    - target: {fileID: 5658417364024485610, guid: b5e509801caf4f547abe61af0bfcee5c,
        type: 3}
      propertyPath: m_RootOrder
      value: 4
      objectReference: {fileID: 0}
    - target: {fileID: 5658417364024485610, guid: b5e509801caf4f547abe61af0bfcee5c,
        type: 3}
      propertyPath: m_LocalEulerAnglesHint.x
      value: 0
      objectReference: {fileID: 0}
    - target: {fileID: 5658417364024485610, guid: b5e509801caf4f547abe61af0bfcee5c,
        type: 3}
      propertyPath: m_LocalEulerAnglesHint.y
      value: 0
      objectReference: {fileID: 0}
    - target: {fileID: 5658417364024485610, guid: b5e509801caf4f547abe61af0bfcee5c,
        type: 3}
      propertyPath: m_LocalEulerAnglesHint.z
      value: 0
      objectReference: {fileID: 0}
    m_RemovedComponents: []
  m_SourcePrefab: {fileID: 100100000, guid: b5e509801caf4f547abe61af0bfcee5c, type: 3}
--- !u!4 &8588268752821748764 stripped
Transform:
  m_CorrespondingSourceObject: {fileID: 5658417364024485610, guid: b5e509801caf4f547abe61af0bfcee5c,
    type: 3}
  m_PrefabInstance: {fileID: 4154874608837976822}
  m_PrefabAsset: {fileID: 0}
--- !u!1001 &4874333466821878506
PrefabInstance:
  m_ObjectHideFlags: 0
  serializedVersion: 2
  m_Modification:
    m_TransformParent: {fileID: 257424491101595508}
    m_Modifications:
    - target: {fileID: 257424491101595508, guid: 6533436c212b6814fb8d055717129b2c,
        type: 3}
      propertyPath: m_LocalPosition.x
      value: 0
      objectReference: {fileID: 0}
    - target: {fileID: 257424491101595508, guid: 6533436c212b6814fb8d055717129b2c,
        type: 3}
      propertyPath: m_LocalPosition.y
      value: 0
      objectReference: {fileID: 0}
    - target: {fileID: 257424491101595508, guid: 6533436c212b6814fb8d055717129b2c,
        type: 3}
      propertyPath: m_LocalPosition.z
      value: 0
      objectReference: {fileID: 0}
    - target: {fileID: 257424491101595508, guid: 6533436c212b6814fb8d055717129b2c,
        type: 3}
      propertyPath: m_LocalRotation.x
      value: 0
      objectReference: {fileID: 0}
    - target: {fileID: 257424491101595508, guid: 6533436c212b6814fb8d055717129b2c,
        type: 3}
      propertyPath: m_LocalRotation.y
      value: 0
      objectReference: {fileID: 0}
    - target: {fileID: 257424491101595508, guid: 6533436c212b6814fb8d055717129b2c,
        type: 3}
      propertyPath: m_LocalRotation.z
      value: 0
      objectReference: {fileID: 0}
    - target: {fileID: 257424491101595508, guid: 6533436c212b6814fb8d055717129b2c,
        type: 3}
      propertyPath: m_LocalRotation.w
      value: 1
      objectReference: {fileID: 0}
    - target: {fileID: 257424491101595508, guid: 6533436c212b6814fb8d055717129b2c,
        type: 3}
      propertyPath: m_RootOrder
      value: 0
      objectReference: {fileID: 0}
    - target: {fileID: 257424491101595508, guid: 6533436c212b6814fb8d055717129b2c,
        type: 3}
      propertyPath: m_LocalEulerAnglesHint.x
      value: 0
      objectReference: {fileID: 0}
    - target: {fileID: 257424491101595508, guid: 6533436c212b6814fb8d055717129b2c,
        type: 3}
      propertyPath: m_LocalEulerAnglesHint.y
      value: 0
      objectReference: {fileID: 0}
    - target: {fileID: 257424491101595508, guid: 6533436c212b6814fb8d055717129b2c,
        type: 3}
      propertyPath: m_LocalEulerAnglesHint.z
      value: 0
      objectReference: {fileID: 0}
    - target: {fileID: 5875174855307194634, guid: 6533436c212b6814fb8d055717129b2c,
        type: 3}
      propertyPath: m_Name
      value: PlatformBase
      objectReference: {fileID: 0}
    - target: {fileID: 5875174855307194634, guid: 6533436c212b6814fb8d055717129b2c,
        type: 3}
      propertyPath: m_IsActive
      value: 1
      objectReference: {fileID: 0}
    m_RemovedComponents: []
  m_SourcePrefab: {fileID: 100100000, guid: 6533436c212b6814fb8d055717129b2c, type: 3}
--- !u!4 &4627327960791106974 stripped
Transform:
  m_CorrespondingSourceObject: {fileID: 257424491101595508, guid: 6533436c212b6814fb8d055717129b2c,
    type: 3}
  m_PrefabInstance: {fileID: 4874333466821878506}
  m_PrefabAsset: {fileID: 0}
--- !u!1001 &5357520515171423878
PrefabInstance:
  m_ObjectHideFlags: 0
  serializedVersion: 2
  m_Modification:
    m_TransformParent: {fileID: 257424491101595508}
    m_Modifications:
    - target: {fileID: 1033440492506627369, guid: 37534169406154e4ca42a100491e7722,
        type: 3}
      propertyPath: m_ConnectedAnchor.x
      value: -0.0000000745058
      objectReference: {fileID: 0}
    - target: {fileID: 1033440492506627369, guid: 37534169406154e4ca42a100491e7722,
        type: 3}
      propertyPath: m_ConnectedAnchor.y
      value: 0.08340824
      objectReference: {fileID: 0}
    - target: {fileID: 1033440492506627369, guid: 37534169406154e4ca42a100491e7722,
        type: 3}
      propertyPath: m_ConnectedAnchor.z
      value: -0.000000033527616
      objectReference: {fileID: 0}
    - target: {fileID: 1033440492702229238, guid: 37534169406154e4ca42a100491e7722,
        type: 3}
      propertyPath: m_ConnectedAnchor.x
      value: -0.000000005355105
      objectReference: {fileID: 0}
    - target: {fileID: 1033440492702229238, guid: 37534169406154e4ca42a100491e7722,
        type: 3}
      propertyPath: m_ConnectedAnchor.y
      value: 0.041191194
      objectReference: {fileID: 0}
    - target: {fileID: 1033440492702229238, guid: 37534169406154e4ca42a100491e7722,
        type: 3}
      propertyPath: m_ConnectedAnchor.z
      value: -0.000000102794715
      objectReference: {fileID: 0}
    - target: {fileID: 1033440492958754807, guid: 37534169406154e4ca42a100491e7722,
        type: 3}
      propertyPath: m_ConnectedAnchor.x
      value: -0.00054260367
      objectReference: {fileID: 0}
    - target: {fileID: 1033440492958754807, guid: 37534169406154e4ca42a100491e7722,
        type: 3}
      propertyPath: m_ConnectedAnchor.y
      value: 0.13266896
      objectReference: {fileID: 0}
    - target: {fileID: 1033440492958754807, guid: 37534169406154e4ca42a100491e7722,
        type: 3}
      propertyPath: m_ConnectedAnchor.z
      value: -0.00031447317
      objectReference: {fileID: 0}
    - target: {fileID: 1033440493142499281, guid: 37534169406154e4ca42a100491e7722,
        type: 3}
      propertyPath: m_ConnectedAnchor.x
      value: -0.000000040041886
      objectReference: {fileID: 0}
    - target: {fileID: 1033440493142499281, guid: 37534169406154e4ca42a100491e7722,
        type: 3}
      propertyPath: m_ConnectedAnchor.y
      value: 0.094158925
      objectReference: {fileID: 0}
    - target: {fileID: 1033440493142499281, guid: 37534169406154e4ca42a100491e7722,
        type: 3}
      propertyPath: m_ConnectedAnchor.z
      value: -0.000000017229379
      objectReference: {fileID: 0}
    - target: {fileID: 1033440493180972497, guid: 37534169406154e4ca42a100491e7722,
        type: 3}
      propertyPath: m_ConnectedAnchor.x
      value: -0.05242219
      objectReference: {fileID: 0}
    - target: {fileID: 1033440493180972497, guid: 37534169406154e4ca42a100491e7722,
        type: 3}
      propertyPath: m_ConnectedAnchor.y
      value: 0.068112604
      objectReference: {fileID: 0}
    - target: {fileID: 1033440493180972497, guid: 37534169406154e4ca42a100491e7722,
        type: 3}
      propertyPath: m_ConnectedAnchor.z
      value: -0.010214625
      objectReference: {fileID: 0}
    - target: {fileID: 1033440493383173035, guid: 37534169406154e4ca42a100491e7722,
        type: 3}
      propertyPath: m_ConnectedAnchor.x
      value: 0.043379404
      objectReference: {fileID: 0}
    - target: {fileID: 1033440493383173035, guid: 37534169406154e4ca42a100491e7722,
        type: 3}
      propertyPath: m_ConnectedAnchor.y
      value: -0.019612275
      objectReference: {fileID: 0}
    - target: {fileID: 1033440493383173035, guid: 37534169406154e4ca42a100491e7722,
        type: 3}
      propertyPath: m_ConnectedAnchor.z
      value: -0.00054762466
      objectReference: {fileID: 0}
    - target: {fileID: 1033440493459963331, guid: 37534169406154e4ca42a100491e7722,
        type: 3}
      propertyPath: m_ConnectedAnchor.x
      value: 0.051218856
      objectReference: {fileID: 0}
    - target: {fileID: 1033440493459963331, guid: 37534169406154e4ca42a100491e7722,
        type: 3}
      propertyPath: m_ConnectedAnchor.y
      value: 0.06729274
      objectReference: {fileID: 0}
    - target: {fileID: 1033440493459963331, guid: 37534169406154e4ca42a100491e7722,
        type: 3}
      propertyPath: m_ConnectedAnchor.z
      value: 0.012843082
      objectReference: {fileID: 0}
    - target: {fileID: 1033440493576328614, guid: 37534169406154e4ca42a100491e7722,
        type: 3}
      propertyPath: m_ConnectedAnchor.x
      value: -0.00000003179593
      objectReference: {fileID: 0}
    - target: {fileID: 1033440493576328614, guid: 37534169406154e4ca42a100491e7722,
        type: 3}
      propertyPath: m_ConnectedAnchor.y
      value: 0.083418086
      objectReference: {fileID: 0}
    - target: {fileID: 1033440493576328614, guid: 37534169406154e4ca42a100491e7722,
        type: 3}
      propertyPath: m_ConnectedAnchor.z
      value: -0.000000011175869
      objectReference: {fileID: 0}
    - target: {fileID: 1033440493637290138, guid: 37534169406154e4ca42a100491e7722,
        type: 3}
      propertyPath: m_ConnectedAnchor.x
      value: -0.04337938
      objectReference: {fileID: 0}
    - target: {fileID: 1033440493637290138, guid: 37534169406154e4ca42a100491e7722,
        type: 3}
      propertyPath: m_ConnectedAnchor.y
      value: -0.019612275
      objectReference: {fileID: 0}
    - target: {fileID: 1033440493637290138, guid: 37534169406154e4ca42a100491e7722,
        type: 3}
      propertyPath: m_ConnectedAnchor.z
      value: -0.0008192025
      objectReference: {fileID: 0}
    - target: {fileID: 1033440493709441144, guid: 37534169406154e4ca42a100491e7722,
        type: 3}
      propertyPath: m_ConnectedAnchor.x
      value: -0.000000014898475
      objectReference: {fileID: 0}
    - target: {fileID: 1033440493709441144, guid: 37534169406154e4ca42a100491e7722,
        type: 3}
      propertyPath: m_ConnectedAnchor.y
      value: 0.09415961
      objectReference: {fileID: 0}
    - target: {fileID: 1033440493709441144, guid: 37534169406154e4ca42a100491e7722,
        type: 3}
      propertyPath: m_ConnectedAnchor.z
      value: -0.0000000428408
      objectReference: {fileID: 0}
    - target: {fileID: 2934846060136982120, guid: 37534169406154e4ca42a100491e7722,
        type: 3}
      propertyPath: m_LocalPosition.x
      value: 1.5
      objectReference: {fileID: 0}
    - target: {fileID: 2934846060136982120, guid: 37534169406154e4ca42a100491e7722,
        type: 3}
      propertyPath: m_LocalPosition.y
      value: -2.5
      objectReference: {fileID: 0}
    - target: {fileID: 2934846060136982120, guid: 37534169406154e4ca42a100491e7722,
        type: 3}
      propertyPath: m_LocalPosition.z
      value: -22.84
      objectReference: {fileID: 0}
    - target: {fileID: 2934846060136982120, guid: 37534169406154e4ca42a100491e7722,
        type: 3}
      propertyPath: m_LocalRotation.x
      value: 0
      objectReference: {fileID: 0}
    - target: {fileID: 2934846060136982120, guid: 37534169406154e4ca42a100491e7722,
        type: 3}
      propertyPath: m_LocalRotation.y
      value: 1
      objectReference: {fileID: 0}
    - target: {fileID: 2934846060136982120, guid: 37534169406154e4ca42a100491e7722,
        type: 3}
      propertyPath: m_LocalRotation.z
      value: 0
      objectReference: {fileID: 0}
    - target: {fileID: 2934846060136982120, guid: 37534169406154e4ca42a100491e7722,
        type: 3}
      propertyPath: m_LocalRotation.w
      value: 0
      objectReference: {fileID: 0}
    - target: {fileID: 2934846060136982120, guid: 37534169406154e4ca42a100491e7722,
        type: 3}
      propertyPath: m_RootOrder
      value: 1
      objectReference: {fileID: 0}
    - target: {fileID: 2934846060136982120, guid: 37534169406154e4ca42a100491e7722,
        type: 3}
      propertyPath: m_LocalEulerAnglesHint.x
      value: 0
      objectReference: {fileID: 0}
    - target: {fileID: 2934846060136982120, guid: 37534169406154e4ca42a100491e7722,
        type: 3}
      propertyPath: m_LocalEulerAnglesHint.y
      value: 180
      objectReference: {fileID: 0}
    - target: {fileID: 2934846060136982120, guid: 37534169406154e4ca42a100491e7722,
        type: 3}
      propertyPath: m_LocalEulerAnglesHint.z
      value: 0
      objectReference: {fileID: 0}
    - target: {fileID: 3282563561134706224, guid: 37534169406154e4ca42a100491e7722,
        type: 3}
      propertyPath: m_Name
      value: Enemy (2)
      objectReference: {fileID: 0}
    - target: {fileID: 3282563561134706224, guid: 37534169406154e4ca42a100491e7722,
        type: 3}
      propertyPath: m_IsActive
      value: 1
      objectReference: {fileID: 0}
    - target: {fileID: 3491025952524276213, guid: 37534169406154e4ca42a100491e7722,
        type: 3}
      propertyPath: runToPlayer_Speed
      value: 5
      objectReference: {fileID: 0}
    - target: {fileID: 3491025952524276213, guid: 37534169406154e4ca42a100491e7722,
        type: 3}
      propertyPath: LookToPlayer_Speed
      value: 5
      objectReference: {fileID: 0}
    - target: {fileID: 7348930952128093302, guid: 37534169406154e4ca42a100491e7722,
        type: 3}
      propertyPath: m_Size.x
      value: 2
      objectReference: {fileID: 0}
    m_RemovedComponents: []
  m_SourcePrefab: {fileID: 100100000, guid: 37534169406154e4ca42a100491e7722, type: 3}
--- !u!4 &7125563726580838638 stripped
Transform:
  m_CorrespondingSourceObject: {fileID: 2934846060136982120, guid: 37534169406154e4ca42a100491e7722,
    type: 3}
  m_PrefabInstance: {fileID: 5357520515171423878}
  m_PrefabAsset: {fileID: 0}
--- !u!1001 &5545161021086354947
PrefabInstance:
  m_ObjectHideFlags: 0
  serializedVersion: 2
  m_Modification:
    m_TransformParent: {fileID: 257424491101595508}
    m_Modifications:
    - target: {fileID: 1033440492506627369, guid: 37534169406154e4ca42a100491e7722,
        type: 3}
      propertyPath: m_ConnectedAnchor.x
      value: -0.000000069849186
      objectReference: {fileID: 0}
    - target: {fileID: 1033440492506627369, guid: 37534169406154e4ca42a100491e7722,
        type: 3}
      propertyPath: m_ConnectedAnchor.y
      value: 0.08340823
      objectReference: {fileID: 0}
    - target: {fileID: 1033440492506627369, guid: 37534169406154e4ca42a100491e7722,
        type: 3}
      propertyPath: m_ConnectedAnchor.z
      value: -0.000000037252907
      objectReference: {fileID: 0}
    - target: {fileID: 1033440492702229238, guid: 37534169406154e4ca42a100491e7722,
        type: 3}
      propertyPath: m_ConnectedAnchor.x
      value: -0.00000002089655
      objectReference: {fileID: 0}
    - target: {fileID: 1033440492702229238, guid: 37534169406154e4ca42a100491e7722,
        type: 3}
      propertyPath: m_ConnectedAnchor.y
      value: 0.041191194
      objectReference: {fileID: 0}
    - target: {fileID: 1033440492702229238, guid: 37534169406154e4ca42a100491e7722,
        type: 3}
      propertyPath: m_ConnectedAnchor.z
      value: -0.000000101514146
      objectReference: {fileID: 0}
    - target: {fileID: 1033440492958754807, guid: 37534169406154e4ca42a100491e7722,
        type: 3}
      propertyPath: m_ConnectedAnchor.x
      value: -0.0005426649
      objectReference: {fileID: 0}
    - target: {fileID: 1033440492958754807, guid: 37534169406154e4ca42a100491e7722,
        type: 3}
      propertyPath: m_ConnectedAnchor.y
      value: 0.13266894
      objectReference: {fileID: 0}
    - target: {fileID: 1033440492958754807, guid: 37534169406154e4ca42a100491e7722,
        type: 3}
      propertyPath: m_ConnectedAnchor.z
      value: -0.00031471532
      objectReference: {fileID: 0}
    - target: {fileID: 1033440493142499281, guid: 37534169406154e4ca42a100491e7722,
        type: 3}
      propertyPath: m_ConnectedAnchor.x
      value: -0.000000049353954
      objectReference: {fileID: 0}
    - target: {fileID: 1033440493142499281, guid: 37534169406154e4ca42a100491e7722,
        type: 3}
      propertyPath: m_ConnectedAnchor.y
      value: 0.094158925
      objectReference: {fileID: 0}
    - target: {fileID: 1033440493142499281, guid: 37534169406154e4ca42a100491e7722,
        type: 3}
      propertyPath: m_ConnectedAnchor.z
      value: -0.0000000065192243
      objectReference: {fileID: 0}
    - target: {fileID: 1033440493180972497, guid: 37534169406154e4ca42a100491e7722,
        type: 3}
      propertyPath: m_ConnectedAnchor.x
      value: -0.05242214
      objectReference: {fileID: 0}
    - target: {fileID: 1033440493180972497, guid: 37534169406154e4ca42a100491e7722,
        type: 3}
      propertyPath: m_ConnectedAnchor.y
      value: 0.06811262
      objectReference: {fileID: 0}
    - target: {fileID: 1033440493180972497, guid: 37534169406154e4ca42a100491e7722,
        type: 3}
      propertyPath: m_ConnectedAnchor.z
      value: -0.010214378
      objectReference: {fileID: 0}
    - target: {fileID: 1033440493383173035, guid: 37534169406154e4ca42a100491e7722,
        type: 3}
      propertyPath: m_ConnectedAnchor.x
      value: 0.04337941
      objectReference: {fileID: 0}
    - target: {fileID: 1033440493383173035, guid: 37534169406154e4ca42a100491e7722,
        type: 3}
      propertyPath: m_ConnectedAnchor.y
      value: -0.019612275
      objectReference: {fileID: 0}
    - target: {fileID: 1033440493383173035, guid: 37534169406154e4ca42a100491e7722,
        type: 3}
      propertyPath: m_ConnectedAnchor.z
      value: -0.0005476172
      objectReference: {fileID: 0}
    - target: {fileID: 1033440493459963331, guid: 37534169406154e4ca42a100491e7722,
        type: 3}
      propertyPath: m_ConnectedAnchor.x
      value: 0.051218856
      objectReference: {fileID: 0}
    - target: {fileID: 1033440493459963331, guid: 37534169406154e4ca42a100491e7722,
        type: 3}
      propertyPath: m_ConnectedAnchor.y
      value: 0.06729274
      objectReference: {fileID: 0}
    - target: {fileID: 1033440493459963331, guid: 37534169406154e4ca42a100491e7722,
        type: 3}
      propertyPath: m_ConnectedAnchor.z
      value: 0.012843082
      objectReference: {fileID: 0}
    - target: {fileID: 1033440493576328614, guid: 37534169406154e4ca42a100491e7722,
        type: 3}
      propertyPath: m_ConnectedAnchor.x
      value: -0.00000003179593
      objectReference: {fileID: 0}
    - target: {fileID: 1033440493576328614, guid: 37534169406154e4ca42a100491e7722,
        type: 3}
      propertyPath: m_ConnectedAnchor.y
      value: 0.083418086
      objectReference: {fileID: 0}
    - target: {fileID: 1033440493576328614, guid: 37534169406154e4ca42a100491e7722,
        type: 3}
      propertyPath: m_ConnectedAnchor.z
      value: -0.000000011175869
      objectReference: {fileID: 0}
    - target: {fileID: 1033440493637290138, guid: 37534169406154e4ca42a100491e7722,
        type: 3}
      propertyPath: m_ConnectedAnchor.x
      value: -0.04337938
      objectReference: {fileID: 0}
    - target: {fileID: 1033440493637290138, guid: 37534169406154e4ca42a100491e7722,
        type: 3}
      propertyPath: m_ConnectedAnchor.y
      value: -0.019612275
      objectReference: {fileID: 0}
    - target: {fileID: 1033440493637290138, guid: 37534169406154e4ca42a100491e7722,
        type: 3}
      propertyPath: m_ConnectedAnchor.z
      value: -0.0008192025
      objectReference: {fileID: 0}
    - target: {fileID: 1033440493709441144, guid: 37534169406154e4ca42a100491e7722,
        type: 3}
      propertyPath: m_ConnectedAnchor.x
      value: 0.000000072630066
      objectReference: {fileID: 0}
    - target: {fileID: 1033440493709441144, guid: 37534169406154e4ca42a100491e7722,
        type: 3}
      propertyPath: m_ConnectedAnchor.y
      value: 0.09415967
      objectReference: {fileID: 0}
    - target: {fileID: 1033440493709441144, guid: 37534169406154e4ca42a100491e7722,
        type: 3}
      propertyPath: m_ConnectedAnchor.z
      value: 0.00000018253907
      objectReference: {fileID: 0}
    - target: {fileID: 2934846060136982120, guid: 37534169406154e4ca42a100491e7722,
        type: 3}
      propertyPath: m_LocalPosition.x
      value: -2.9
      objectReference: {fileID: 0}
    - target: {fileID: 2934846060136982120, guid: 37534169406154e4ca42a100491e7722,
        type: 3}
      propertyPath: m_LocalPosition.y
      value: -2.5
      objectReference: {fileID: 0}
    - target: {fileID: 2934846060136982120, guid: 37534169406154e4ca42a100491e7722,
        type: 3}
      propertyPath: m_LocalPosition.z
      value: 33.46
      objectReference: {fileID: 0}
    - target: {fileID: 2934846060136982120, guid: 37534169406154e4ca42a100491e7722,
        type: 3}
      propertyPath: m_LocalRotation.x
      value: 0
      objectReference: {fileID: 0}
    - target: {fileID: 2934846060136982120, guid: 37534169406154e4ca42a100491e7722,
        type: 3}
      propertyPath: m_LocalRotation.y
      value: 1
      objectReference: {fileID: 0}
    - target: {fileID: 2934846060136982120, guid: 37534169406154e4ca42a100491e7722,
        type: 3}
      propertyPath: m_LocalRotation.z
      value: 0
      objectReference: {fileID: 0}
    - target: {fileID: 2934846060136982120, guid: 37534169406154e4ca42a100491e7722,
        type: 3}
      propertyPath: m_LocalRotation.w
      value: 0
      objectReference: {fileID: 0}
    - target: {fileID: 2934846060136982120, guid: 37534169406154e4ca42a100491e7722,
        type: 3}
      propertyPath: m_RootOrder
      value: 5
      objectReference: {fileID: 0}
    - target: {fileID: 2934846060136982120, guid: 37534169406154e4ca42a100491e7722,
        type: 3}
      propertyPath: m_LocalEulerAnglesHint.x
      value: 0
      objectReference: {fileID: 0}
    - target: {fileID: 2934846060136982120, guid: 37534169406154e4ca42a100491e7722,
        type: 3}
      propertyPath: m_LocalEulerAnglesHint.y
      value: 180
      objectReference: {fileID: 0}
    - target: {fileID: 2934846060136982120, guid: 37534169406154e4ca42a100491e7722,
        type: 3}
      propertyPath: m_LocalEulerAnglesHint.z
      value: 0
      objectReference: {fileID: 0}
    - target: {fileID: 3282563561134706224, guid: 37534169406154e4ca42a100491e7722,
        type: 3}
      propertyPath: m_Name
      value: Enemy (4)
      objectReference: {fileID: 0}
    - target: {fileID: 3282563561134706224, guid: 37534169406154e4ca42a100491e7722,
        type: 3}
      propertyPath: m_IsActive
      value: 1
      objectReference: {fileID: 0}
    - target: {fileID: 3491025952524276213, guid: 37534169406154e4ca42a100491e7722,
        type: 3}
      propertyPath: runToPlayer_Speed
      value: 5
      objectReference: {fileID: 0}
    - target: {fileID: 3491025952524276213, guid: 37534169406154e4ca42a100491e7722,
        type: 3}
      propertyPath: LookToPlayer_Speed
      value: 5
      objectReference: {fileID: 0}
    - target: {fileID: 7348930952128093302, guid: 37534169406154e4ca42a100491e7722,
        type: 3}
      propertyPath: m_Size.x
      value: 2
      objectReference: {fileID: 0}
    m_RemovedComponents: []
  m_SourcePrefab: {fileID: 100100000, guid: 37534169406154e4ca42a100491e7722, type: 3}
--- !u!4 &7227983147292076139 stripped
Transform:
  m_CorrespondingSourceObject: {fileID: 2934846060136982120, guid: 37534169406154e4ca42a100491e7722,
    type: 3}
  m_PrefabInstance: {fileID: 5545161021086354947}
  m_PrefabAsset: {fileID: 0}
